<svg width="76" height="76" viewBox="0 0 76 76" fill="none" xmlns="http://www.w3.org/2000/svg">
<circle cx="38" cy="38" r="38" fill="#00C6C0"/>
<rect x="19" y="19" width="38" height="38" rx="2" fill="#F7F7F7"/>
<path d="M57 64.6V43.7L43.7 55.1L57 64.6Z" fill="#F7F7F7"/>
<path d="M22.8 43.7C27.2334 47.5 39.52 52.82 53.2 43.7" stroke="#00C6C0" stroke-width="3" stroke-linecap="round"/>
</svg>
